<?xml version="1.0" encoding="UTF-8" standalone="no"?>
<svg
   xmlns:dc="http://purl.org/dc/elements/1.1/"
   xmlns:cc="http://creativecommons.org/ns#"
   xmlns:rdf="http://www.w3.org/1999/02/22-rdf-syntax-ns#"
   xmlns:svg="http://www.w3.org/2000/svg"
   xmlns="http://www.w3.org/2000/svg"
   xmlns:sodipodi="http://sodipodi.sourceforge.net/DTD/sodipodi-0.dtd"
   xmlns:inkscape="http://www.inkscape.org/namespaces/inkscape"
   height="37.795"
   width="37.795"
   version="1.1"
   id="svg4"
   sodipodi:docname="hidden.svg"
   inkscape:version="1.0.1 (3bc2e813f5, 2020-09-07)">
  <metadata
     id="metadata10">
    <rdf:RDF>
      <cc:Work
         rdf:about="">
        <dc:format>image/svg+xml</dc:format>
        <dc:type
           rdf:resource="http://purl.org/dc/dcmitype/StillImage" />
        <dc:title />
      </cc:Work>
    </rdf:RDF>
  </metadata>
  <defs
     id="defs8" />
  <sodipodi:namedview
     pagecolor="#ffffff"
     bordercolor="#666666"
     borderopacity="1"
     objecttolerance="10"
     gridtolerance="10"
     guidetolerance="10"
     inkscape:pageopacity="0"
     inkscape:pageshadow="2"
     inkscape:window-width="1920"
     inkscape:window-height="1021"
     id="namedview6"
     showgrid="false"
     inkscape:zoom="8.83065"
     inkscape:cx="27.946421"
     inkscape:cy="18.255496"
     inkscape:window-x="0"
     inkscape:window-y="27"
     inkscape:window-maximized="1"
     inkscape:current-layer="svg4"
     inkscape:document-rotation="0" />
  <path
     style="fill:#000000;stroke-width:0.0665412"
     d="m 5.7734276,32.156352 c -0.2457889,-0.131816 -0.469893,-0.481094 -0.469893,-0.732351 0,-0.08654 0.044811,-0.251768 0.099585,-0.367187 C 5.4578891,30.941395 11.30435,25.048248 18.395251,17.960935 32.048716,4.3143798 31.416532,4.9188299 31.920155,5.0294442 c 0.256431,0.056321 0.575529,0.3753317 0.631825,0.6316462 0.109612,0.499039 0.628128,-0.043502 -12.93249,13.5316806 -8.933426,8.943028 -12.8994521,12.8704 -13.084945,12.9574 -0.3352711,0.157262 -0.4772612,0.158417 -0.7611174,0.0062 z M 17.480538,28.504118 c -0.576564,-0.06493 -1.89332,-0.367312 -2.555702,-0.586887 -0.691344,-0.229178 -1.869131,-0.707355 -1.95584,-0.794069 -0.02243,-0.02238 0.487516,-0.568981 1.133153,-1.214618 l 1.173888,-1.173888 0.6531,0.30692 c 1.613945,0.758449 3.311026,0.897189 4.997274,0.408537 2.29419,-0.664829 4.166279,-2.536919 4.831114,-4.831113 0.488657,-1.686258 0.349912,-3.383324 -0.408557,-4.997308 l -0.306935,-0.653138 1.492629,-1.491378 1.492629,-1.491383 0.910103,0.730046 c 1.064539,0.85392 2.509098,2.233412 3.437655,3.282803 0.743513,0.840274 1.628524,1.957793 1.775425,2.241873 0.168151,0.325169 0.123608,0.609803 -0.162387,1.037711 -0.834836,1.249087 -3.302121,3.865085 -4.768903,5.056348 -2.895302,2.351456 -5.728576,3.715055 -8.553331,4.116554 -0.634661,0.09021 -2.569093,0.12239 -3.185315,0.05299 z M 8.9514933,24.55823 C 7.3792367,23.297041 5.6082354,21.497129 4.3470603,19.878646 3.4303236,18.702187 3.4238383,18.622907 4.1637293,17.637642 5.3202036,16.097631 7.2004868,14.139572 8.6853221,12.92902 11.410355,10.707352 13.945365,9.4383456 16.781859,8.8759503 c 0.475386,-0.094255 0.928162,-0.1185302 2.195856,-0.1177338 1.480908,9.551e-4 1.657438,0.014029 2.428744,0.1800055 0.457471,0.098453 1.146171,0.2815225 1.530443,0.4068191 0.658631,0.214756 1.89387,0.7167409 1.982989,0.8058609 0.02238,0.02243 -0.488189,0.569659 -1.134656,1.216126 l -1.175391,1.175387 -0.566324,-0.279423 c -2.166959,-1.069188 -4.744781,-0.944821 -6.825952,0.32931 -0.762343,0.46672 -1.851135,1.555511 -2.317859,2.317855 -1.274136,2.081185 -1.398493,4.658988 -0.329292,6.82599 l 0.279442,0.566357 -1.494131,1.492886 -1.4941321,1.492886 z m 9.4273527,-1.755578 c -0.03661,-0.01379 -0.240111,-0.06352 -0.452256,-0.110498 -0.21214,-0.04696 -0.397572,-0.104594 -0.412069,-0.128056 -0.0145,-0.02343 1.183274,-1.252007 2.66172,-2.730119 1.739601,-1.7392 2.699105,-2.653422 2.71932,-2.590979 0.01718,0.05306 0.07093,0.21626 0.119466,0.36265 0.05453,0.164505 0.087,0.571129 0.08503,1.064653 -0.0029,0.689307 -0.02715,0.865231 -0.178277,1.286544 -0.24064,0.670814 -0.544019,1.155553 -1.022993,1.634528 -0.779209,0.779208 -1.680297,1.170895 -2.787762,1.211793 -0.366099,0.0135 -0.695581,0.01332 -0.732179,-4.77e-4 z m -3.38552,-2.771584 c -0.01718,-0.05306 -0.07093,-0.216259 -0.119466,-0.362649 -0.05453,-0.164509 -0.087,-0.571133 -0.08503,-1.064659 0.0029,-0.689301 0.02715,-0.865226 0.178276,-1.286543 0.24064,-0.670814 0.544019,-1.155549 1.022993,-1.634523 0.480349,-0.480349 0.966105,-0.783856 1.634528,-1.021265 0.407531,-0.144749 0.608815,-0.17416 1.220002,-0.178278 0.665898,-0.0043 1.459509,0.113185 1.529736,0.226815 0.0145,0.02348 -1.18328,1.252013 -2.661721,2.730119 -1.7396,1.739205 -2.699105,2.653426 -2.71932,2.590983 z"
     id="path21" />
</svg>
